swc-survey • pegboard
…
One of the things I like to look at is what unique patterns we find with the block elements in the challenges. We can use the graph = TRUE element to check this across our curricula. Setting recurse = TRUE dips into the block elements that are nested within block elements.

relationships <- map_dfr(SWC, ~.x$challenges(graph = TRUE, recurse = TRUE), .id = "Lesson") %>% as_tibble()

relationships
#> # A tibble: 4,681 x 7
#>    Lesson       Episode       Block from      to        pos          level
#>    <chr>        <chr>         <chr> <chr>     <chr>     <chr>        <int>
#>  1 shell-novice 02-filedir.md 1     challenge heading   402:1-418:14     1
#>  2 shell-novice 02-filedir.md 1     heading   paragraph 402:3-402:30     1
#>  3 shell-novice 02-filedir.md 1     paragraph paragraph 404:3-405:80     1
#>  4 shell-novice 02-filedir.md 1     paragraph solution  407:3-409:15     1
#>  5 shell-novice 02-filedir.md 1     solution  lesson    411:3-418:14     1
#>  6 shell-novice 02-filedir.md 1     solution  heading   411:3-418:14     2
#>  7 shell-novice 02-filedir.md 1     heading   paragraph 411:5-411:15     2
#>  8 shell-novice 02-filedir.md 1     paragraph challenge 412:5-418:14     2
#>  9 shell-novice 02-filedir.md 2     challenge heading   420:1-435:14     1
#> 10 shell-novice 02-filedir.md 2     heading   paragraph 420:3-420:43     1
#> # … with 4,671 more rows
…
